
###############################################
##### Initial Data ra1.txt #########
###############################################

###############################################
##### DATE IS:  Monday,  18.  February 2019 09:42PM #####
##### TIME IS:  Monday,  18.  February 2019 09:42PM #####
#################################################

#################################################
 Number of array entries is...21
 

 Initial value is.. 86 
 
#################################################

#################################################
 Initial input lms is ...
 [[0 0 1 0 0 0 1 0 1]
 [0 0 0 1 0 1 0 0 0]
 [0 0 0 0 1 0 0 1 0]
 [0 1 0 0 0 1 0 0 1]
 [0 0 1 0 0 0 0 1 0]
 [0 1 0 1 0 0 0 0 0]
 [1 0 1 0 0 0 0 0 0]
 [0 0 1 0 1 0 0 0 0]
 [1 0 1 1 0 0 0 0 0]] 

###############################################

 Initial input lvs is ...
 [[0 1 2 3 4 5 6 7 8]
 [1 0 1 2 3 4 5 6 7]
 [2 1 0 1 2 3 4 5 6]
 [3 2 1 0 1 2 3 4 5]
 [4 3 2 1 0 1 2 3 4]
 [5 4 3 2 1 0 1 2 3]
 [6 5 4 3 2 1 0 1 2]
 [7 6 5 4 3 2 1 0 1]
 [8 7 6 5 4 3 2 1 0]] 

###############################################

 Initial input los is ...
 [[0 0 2 0 0 0 6 0 8]
 [0 0 0 2 0 4 0 0 0]
 [0 0 0 0 2 0 0 5 0]
 [0 2 0 0 0 2 0 0 5]
 [0 0 2 0 0 0 0 3 0]
 [0 4 0 2 0 0 0 0 0]
 [6 0 4 0 0 0 0 0 0]
 [0 0 5 0 3 0 0 0 0]
 [8 0 6 5 0 0 0 0 0]] 

###############################################

############################
flag_wt is ...0

############################

############################
flag_wt is ...2

############################

############################
flag_wt is ...4

############################

############################
flag_wt is ...6

############################

############################
flag_wt is ...8

############################

############################
flag_wt is ...10

############################

############################
flag_wt is ...12

############################

############################
flag_wt is ...14

############################

############################
flag_wt is ...16

############################

############################
flag_wt is ...18

############################

############################
flag_wt is ...20

############################

############################
flag_wt is ...22

############################

############################
flag_wt is ...24

############################

############################
flag_wt is ...26

############################

############################
flag_wt is ...28

############################

############################
flag_wt is ...30

############################

############################
flag_wt is ...32

############################

############################
flag_wt is ...34

############################

############################
flag_wt is ...36

############################

############################
flag_wt is ...38

############################

############################
flag_wt is ...40

############################

############################
flag_wt is ...42

############################

############################
flag_wt is ...44

############################

############################
flag_wt is ...46

############################

############################
flag_wt is ...48

############################

############################
flag_wt is ...50

############################

############################
flag_wt is ...52

############################

############################
flag_wt is ...54

############################

############################
flag_wt is ...56

############################

############################
flag_wt is ...58

############################

############################
flag_wt is ...60

############################

############################
flag_wt is ...62

############################

############################
flag_wt is ...64

############################

############################
flag_wt is ...66

############################

############################
flag_wt is ...68

############################

############################
flag_wt is ...70

############################

############################
flag_wt is ...72

############################

############################
flag_wt is ...74

############################

############################
flag_wt is ...76

############################

############################
flag_wt is ...78

############################

############################
flag_wt is ...80

############################

############################
flag_wt is ...82

############################

############################
flag_wt is ...84

############################

############################
flag_wt is ...86

############################

############################
flag_wt is ...88

############################

############################
flag_wt is ...90

############################

############################
flag_wt is ...92

############################

############################
flag_wt is ...94

############################

############################
flag_wt is ...96

############################

############################
flag_wt is ...98

############################

############################
flag_wt is ...100

############################

############################
flag_wt is ...102

############################

############################
flag_wt is ...104

############################

############################
flag_wt is ...106

############################

############################
flag_wt is ...108

############################

############################
flag_wt is ...110

############################

############################
flag_wt is ...112

############################

############################
flag_wt is ...114

############################

############################
flag_wt is ...116

############################

############################
flag_wt is ...118

############################

############################
flag_wt is ...120

############################

############################
flag_wt is ...122

############################

############################
flag_wt is ...124

############################

############################
flag_wt is ...126

############################

############################
flag_wt is ...128

############################

############################
flag_wt is ...130

############################

############################
flag_wt is ...132

############################

############################
flag_wt is ...134

############################

############################
flag_wt is ...136

############################

############################
flag_wt is ...138

############################

############################
flag_wt is ...140

############################

############################
flag_wt is ...142

############################

############################
flag_wt is ...144

############################

############################
flag_wt is ...146

############################

############################
flag_wt is ...148

############################

############################
flag_wt is ...150

############################

############################
flag_wt is ...152

############################

############################
flag_wt is ...154

############################

############################
flag_wt is ...156

############################

############################
flag_wt is ...158

############################

############################
flag_wt is ...160

############################

############################
flag_wt is ...162

############################

############################
flag_wt is ...164

############################

############################
flag_wt is ...166

############################

############################
flag_wt is ...168

############################

############################
flag_wt is ...170

############################

############################
flag_wt is ...172

############################

############################
flag_wt is ...174

############################

############################
flag_wt is ...176

############################

############################
flag_wt is ...178

############################

############################
flag_wt is ...180

############################

############################
flag_wt is ...182

############################

############################
flag_wt is ...184

############################

############################
flag_wt is ...186

############################

############################
flag_wt is ...188

############################

############################
flag_wt is ...190

############################

############################
flag_wt is ...192

############################

############################
flag_wt is ...194

############################

############################
flag_wt is ...196

############################

############################
flag_wt is ...198

############################

############################
flag_wt is ...200

############################

############################
flag_wt is ...202

############################

############################
flag_wt is ...204

############################

############################
flag_wt is ...206

############################

############################
flag_wt is ...208

############################

############################
flag_wt is ...210

############################

############################
flag_wt is ...212

############################

############################
flag_wt is ...214

############################

############################
flag_wt is ...216

############################

############################
flag_wt is ...218

############################

############################
flag_wt is ...220

############################

############################
flag_wt is ...222

############################

############################
flag_wt is ...224

############################

############################
flag_wt is ...226

############################

############################
flag_wt is ...228

############################

############################
flag_wt is ...230

############################

############################
flag_wt is ...232

############################

############################
flag_wt is ...234

############################

############################
flag_wt is ...236

############################

############################
flag_wt is ...238

############################

############################
flag_wt is ...240

############################

############################
flag_wt is ...242

############################

############################
flag_wt is ...244

############################

############################
flag_wt is ...246

############################

############################
flag_wt is ...248

############################

############################
flag_wt is ...250

############################

############################
flag_wt is ...252

############################

############################
flag_wt is ...254

############################

############################
flag_wt is ...256

############################

############################
flag_wt is ...258

############################

############################
flag_wt is ...260

############################

############################
flag_wt is ...262

############################

############################
flag_wt is ...264

############################

############################
flag_wt is ...266

############################

############################
flag_wt is ...268

############################

############################
flag_wt is ...270

############################

############################
flag_wt is ...272

############################

############################
flag_wt is ...274

############################

############################
flag_wt is ...276

############################

############################
flag_wt is ...278

############################

############################
flag_wt is ...280

############################

############################
flag_wt is ...282

############################

############################
flag_wt is ...284

############################

############################
flag_wt is ...286

############################

############################
flag_wt is ...288

############################

############################
flag_wt is ...290

############################

############################
flag_wt is ...292

############################

############################
flag_wt is ...294

############################

############################
flag_wt is ...296

############################

############################
flag_wt is ...298

############################

############################
flag_wt is ...300

############################

############################
flag_wt is ...302

############################

############################
flag_wt is ...304

############################

############################
flag_wt is ...306

############################

############################
flag_wt is ...308

############################

############################
flag_wt is ...310

############################

############################
flag_wt is ...312

############################

############################
flag_wt is ...314

############################

############################
flag_wt is ...316

############################

############################
flag_wt is ...318

############################

############################
flag_wt is ...320

############################

############################
flag_wt is ...322

############################

############################
flag_wt is ...324

############################

############################
flag_wt is ...326

############################

############################
flag_wt is ...328

############################

############################
flag_wt is ...330

############################

############################
flag_wt is ...332

############################

############################
flag_wt is ...334

############################

############################
flag_wt is ...336

############################

############################
flag_wt is ...338

############################

############################
flag_wt is ...340

############################

############################
flag_wt is ...342

############################

############################
flag_wt is ...344

############################

############################
flag_wt is ...346

############################

############################
flag_wt is ...348

############################

############################
flag_wt is ...350

############################

############################
flag_wt is ...352

############################

############################
flag_wt is ...354

############################

############################
flag_wt is ...356

############################

############################
flag_wt is ...358

############################

############################
flag_wt is ...360

############################

############################
flag_wt is ...362

############################

############################
flag_wt is ...364

############################

############################
flag_wt is ...366

############################

############################
flag_wt is ...368

############################

############################
flag_wt is ...370

############################

############################
flag_wt is ...372

############################

############################
flag_wt is ...374

############################

############################
flag_wt is ...376

############################

############################
flag_wt is ...378

############################

############################
flag_wt is ...380

############################

############################
flag_wt is ...382

############################

############################
flag_wt is ...384

############################

############################
flag_wt is ...386

############################

############################
flag_wt is ...388

############################

############################
flag_wt is ...390

############################

############################
flag_wt is ...392

############################

############################
flag_wt is ...394

############################

############################
flag_wt is ...396

############################

############################
flag_wt is ...398

############################

############################
flag_wt is ...400

############################

############################
flag_wt is ...402

############################

############################
flag_wt is ...404

############################

############################
flag_wt is ...406

############################

############################
flag_wt is ...408

############################

############################
flag_wt is ...410

############################

############################
flag_wt is ...412

############################

############################
flag_wt is ...414

############################

############################
flag_wt is ...416

############################

############################
flag_wt is ...418

############################

############################
flag_wt is ...420

############################

############################
flag_wt is ...422

############################

############################
flag_wt is ...424

############################

############################
flag_wt is ...426

############################

############################
flag_wt is ...428

############################

############################
flag_wt is ...430

############################

############################
flag_wt is ...432

############################

############################
flag_wt is ...434

############################

############################
flag_wt is ...436

############################

############################
flag_wt is ...438

############################

############################
flag_wt is ...440

############################

############################
flag_wt is ...442

############################

############################
flag_wt is ...444

############################

############################
flag_wt is ...446

############################

############################
flag_wt is ...448

############################

############################
flag_wt is ...450

############################

############################
flag_wt is ...452

############################

############################
flag_wt is ...454

############################

############################
flag_wt is ...456

############################

############################
flag_wt is ...458

############################

############################
flag_wt is ...460

############################

############################
flag_wt is ...462

############################

############################
flag_wt is ...464

############################

############################
flag_wt is ...466

############################

############################
flag_wt is ...468

############################

############################
flag_wt is ...470

############################

############################
flag_wt is ...472

############################

############################
flag_wt is ...474

############################

############################
flag_wt is ...476

############################

############################
flag_wt is ...478

############################

############################
flag_wt is ...480

############################

############################
flag_wt is ...482

############################

############################
flag_wt is ...484

############################

############################
flag_wt is ...486

############################

############################
flag_wt is ...488

############################

############################
flag_wt is ...490

############################

############################
flag_wt is ...492

############################

############################
flag_wt is ...494

############################

############################
flag_wt is ...496

############################

############################
flag_wt is ...498

############################

############################
flag_wt is ...500

############################

############################
flag_wt is ...502

############################

############################
flag_wt is ...504

############################

############################
flag_wt is ...506

############################

############################
flag_wt is ...508

############################

############################
flag_wt is ...510

############################

############################
flag_wt is ...512

############################

############################
flag_wt is ...514

############################

############################
flag_wt is ...516

############################

############################
flag_wt is ...518

############################

############################
flag_wt is ...520

############################

############################
flag_wt is ...522

############################

############################
flag_wt is ...524

############################

############################
flag_wt is ...526

############################

############################
flag_wt is ...528

############################

############################
flag_wt is ...530

############################

############################
flag_wt is ...532

############################

############################
flag_wt is ...534

############################

############################
flag_wt is ...536

############################

############################
flag_wt is ...538

############################

############################
flag_wt is ...540

############################

############################
flag_wt is ...542

############################

############################
flag_wt is ...544

############################

############################
flag_wt is ...546

############################

############################
flag_wt is ...548

############################

############################
flag_wt is ...550

############################

############################
flag_wt is ...552

############################

############################
flag_wt is ...554

############################

############################
flag_wt is ...556

############################

############################
flag_wt is ...558

############################

############################
flag_wt is ...560

############################

############################
flag_wt is ...562

############################

############################
flag_wt is ...564

############################

############################
flag_wt is ...566

############################

############################
flag_wt is ...568

############################

############################
flag_wt is ...570

############################

############################
flag_wt is ...572

############################

############################
flag_wt is ...574

############################

############################
flag_wt is ...576

############################

############################
flag_wt is ...578

############################

############################
flag_wt is ...580

############################

############################
flag_wt is ...582

############################

############################
flag_wt is ...584

############################

############################
flag_wt is ...586

############################

############################
flag_wt is ...588

############################

############################
flag_wt is ...590

############################

############################
flag_wt is ...592

############################

############################
flag_wt is ...594

############################

############################
flag_wt is ...596

############################

############################
flag_wt is ...598

############################

############################
flag_wt is ...600

############################

############################
flag_wt is ...602

############################

############################
flag_wt is ...604

############################

############################
flag_wt is ...606

############################

############################
flag_wt is ...608

############################

############################
flag_wt is ...610

############################

############################
flag_wt is ...612

############################

############################
flag_wt is ...614

############################

############################
flag_wt is ...616

############################

############################
flag_wt is ...618

############################

############################
flag_wt is ...620

############################

############################
flag_wt is ...622

############################

############################
flag_wt is ...624

############################

############################
flag_wt is ...626

############################

############################
flag_wt is ...628

############################

############################
flag_wt is ...630

############################

############################
flag_wt is ...632

############################

############################
flag_wt is ...634

############################

############################
flag_wt is ...636

############################

############################
flag_wt is ...638

############################

############################
flag_wt is ...640

############################

############################
flag_wt is ...642

############################

############################
flag_wt is ...644

############################

############################
flag_wt is ...646

############################

############################
flag_wt is ...648

############################

############################
flag_wt is ...650

############################

############################
flag_wt is ...652

############################

############################
flag_wt is ...654

############################

############################
flag_wt is ...656

############################

############################
flag_wt is ...658

############################

############################
flag_wt is ...660

############################

############################
flag_wt is ...662

############################

############################
flag_wt is ...664

############################

############################
flag_wt is ...666

############################

############################
flag_wt is ...668

############################

############################
flag_wt is ...670

############################

############################
flag_wt is ...672

############################

############################
flag_wt is ...674

############################

############################
flag_wt is ...676

############################

############################
flag_wt is ...678

############################

############################
flag_wt is ...680

############################

############################
flag_wt is ...682

############################

############################
flag_wt is ...684

############################

############################
flag_wt is ...686

############################

############################
flag_wt is ...688

############################

############################
flag_wt is ...690

############################

############################
flag_wt is ...692

############################

############################
flag_wt is ...694

############################

############################
flag_wt is ...696

############################

############################
flag_wt is ...698

############################

############################
flag_wt is ...700

############################

############################
flag_wt is ...702

############################

############################
flag_wt is ...704

############################

############################
flag_wt is ...706

############################

############################
flag_wt is ...708

############################

############################
flag_wt is ...710

############################

############################
flag_wt is ...712

############################

############################
flag_wt is ...714

############################

############################
flag_wt is ...716

############################

############################
flag_wt is ...718

############################

############################
flag_wt is ...720

############################

############################
flag_wt is ...722

############################

############################
flag_wt is ...724

############################

############################
flag_wt is ...726

############################

############################
flag_wt is ...728

############################

############################
flag_wt is ...730

############################

############################
flag_wt is ...732

############################

############################
flag_wt is ...734

############################

############################
flag_wt is ...736

############################

############################
flag_wt is ...738

############################

############################
flag_wt is ...740

############################

############################
flag_wt is ...742

############################

############################
flag_wt is ...744

############################

############################
flag_wt is ...746

############################

############################
flag_wt is ...748

############################

############################
flag_wt is ...750

############################

############################
flag_wt is ...752

############################

############################
flag_wt is ...754

############################

############################
flag_wt is ...756

############################

############################
flag_wt is ...758

############################

############################
flag_wt is ...760

############################

############################
flag_wt is ...762

############################

############################
flag_wt is ...764

############################

############################
flag_wt is ...766

############################

############################
flag_wt is ...768

############################

############################
flag_wt is ...770

############################

############################
flag_wt is ...772

############################

############################
flag_wt is ...774

############################

############################
flag_wt is ...776

############################

############################
flag_wt is ...778

############################

############################
flag_wt is ...780

############################

############################
flag_wt is ...782

############################

############################
flag_wt is ...784

############################

############################
flag_wt is ...786

############################

############################
flag_wt is ...788

############################

############################
flag_wt is ...790

############################

############################
flag_wt is ...792

############################

############################
flag_wt is ...794

############################

############################
flag_wt is ...796

############################

############################
flag_wt is ...798

############################

############################
flag_wt is ...800

############################

############################
flag_wt is ...802

############################

############################
flag_wt is ...804

############################

############################
flag_wt is ...806

############################

############################
flag_wt is ...808

############################

############################
flag_wt is ...810

############################

############################
flag_wt is ...812

############################

############################
flag_wt is ...814

############################

############################
flag_wt is ...816

############################

############################
flag_wt is ...818

############################

############################
flag_wt is ...820

############################

############################
flag_wt is ...822

############################

############################
flag_wt is ...824

############################

############################
flag_wt is ...826

############################

############################
flag_wt is ...828

############################

############################
flag_wt is ...830

############################

############################
flag_wt is ...832

############################

############################
flag_wt is ...834

############################

############################
flag_wt is ...836

############################

############################
flag_wt is ...838

############################

############################
flag_wt is ...840

############################

############################
flag_wt is ...842

############################

############################
flag_wt is ...844

############################

############################
flag_wt is ...846

############################

############################
flag_wt is ...848

############################

############################
flag_wt is ...850

############################

############################
flag_wt is ...852

############################

############################
flag_wt is ...854

############################

############################
flag_wt is ...856

############################

############################
flag_wt is ...858

############################

############################
flag_wt is ...860

############################

############################
flag_wt is ...862

############################

############################
flag_wt is ...864

############################

############################
flag_wt is ...866

############################

############################
flag_wt is ...868

############################

############################
flag_wt is ...870

############################

############################
flag_wt is ...872

############################

############################
flag_wt is ...874

############################

############################
flag_wt is ...876

############################

############################
flag_wt is ...878

############################

############################
flag_wt is ...880

############################

############################
flag_wt is ...882

############################

############################
flag_wt is ...884

############################

############################
flag_wt is ...886

############################

############################
flag_wt is ...888

############################

############################
flag_wt is ...890

############################

############################
flag_wt is ...892

############################

############################
flag_wt is ...894

############################

############################
flag_wt is ...896

############################

############################
flag_wt is ...898

############################

############################
flag_wt is ...900

############################

############################
flag_wt is ...902

############################

############################
flag_wt is ...904

############################

############################
flag_wt is ...906

############################

############################
flag_wt is ...908

############################

############################
flag_wt is ...910

############################

############################
flag_wt is ...912

############################

############################
flag_wt is ...914

############################

############################
flag_wt is ...916

############################

############################
flag_wt is ...918

############################

############################
flag_wt is ...920

############################

############################
flag_wt is ...922

############################

############################
flag_wt is ...924

############################

############################
flag_wt is ...926

############################

############################
flag_wt is ...928

############################

############################
flag_wt is ...930

############################

############################
flag_wt is ...932

############################

############################
flag_wt is ...934

############################

############################
flag_wt is ...936

############################

############################
flag_wt is ...938

############################

############################
flag_wt is ...940

############################

############################
flag_wt is ...942

############################

############################
flag_wt is ...944

############################

############################
flag_wt is ...946

############################

############################
flag_wt is ...948

############################

############################
flag_wt is ...950

############################

############################
flag_wt is ...952

############################

############################
flag_wt is ...954

############################

############################
flag_wt is ...956

############################

############################
flag_wt is ...958

############################

############################
flag_wt is ...960

############################

############################
flag_wt is ...962

############################

############################
flag_wt is ...964

############################

############################
flag_wt is ...966

############################

############################
flag_wt is ...968

############################

############################
flag_wt is ...970

############################

############################
flag_wt is ...972

############################

############################
flag_wt is ...974

############################

############################
flag_wt is ...976

############################

############################
flag_wt is ...978

############################

############################
flag_wt is ...980

############################

############################
flag_wt is ...982

############################

############################
flag_wt is ...984

############################

############################
flag_wt is ...986

############################

############################
flag_wt is ...988

############################

############################
flag_wt is ...990

############################

############################
flag_wt is ...992

############################

############################
flag_wt is ...994

############################

############################
flag_wt is ...996

############################

############################
flag_wt is ...998

############################

############################
flag_wt is ...1000

############################

################
Target key is .. 
 28 
################

################
Minimum key is .. 
 28 
################

################
Array value min_key [0] is .. 
 [[0 1 1 0 0 0 0 0 0]
 [1 0 1 0 0 0 0 0 0]
 [1 1 0 0 0 0 0 0 0]
 [0 0 1 0 1 0 0 0 0]
 [0 0 1 1 0 1 0 0 0]
 [0 0 1 0 1 0 1 0 0]
 [0 0 0 0 0 1 0 1 1]
 [0 0 0 0 0 0 1 0 1]
 [0 0 0 0 0 0 1 1 0]] 
################
Array lms in is 
 [[0 1 1 0 0 0 0 0 0]
 [1 0 1 0 0 0 0 0 0]
 [1 1 0 0 0 0 0 0 0]
 [0 0 1 0 1 0 0 0 0]
 [0 0 1 1 0 1 0 0 0]
 [0 0 1 0 1 0 1 0 0]
 [0 0 0 0 0 1 0 1 1]
 [0 0 0 0 0 0 1 0 1]
 [0 0 0 0 0 0 1 1 0]] 

################
Array lvs in is 
 [[0 1 2 3 4 5 6 7 8]
 [1 0 1 2 3 4 5 6 7]
 [2 1 0 1 2 3 4 5 6]
 [3 2 1 0 1 2 3 4 5]
 [4 3 2 1 0 1 2 3 4]
 [5 4 3 2 1 0 1 2 3]
 [6 5 4 3 2 1 0 1 2]
 [7 6 5 4 3 2 1 0 1]
 [8 7 6 5 4 3 2 1 0]] 

################
Array los in is 
 [[0 1 2 0 0 0 0 0 0]
 [1 0 1 0 0 0 0 0 0]
 [2 1 0 0 0 0 0 0 0]
 [0 0 1 0 1 0 0 0 0]
 [0 0 2 1 0 1 0 0 0]
 [0 0 3 0 1 0 1 0 0]
 [0 0 0 0 0 1 0 1 2]
 [0 0 0 0 0 0 1 0 1]
 [0 0 0 0 0 0 2 1 0]] 
